[
    62,
    19,
    0,
    16,
    1,
    115,
    1,
    64,
    64,
    59,
    66,
    96,
    3,
    39,
    1,
    73,
    1,
    93,
    0,
    0,
    0,
    0,
    0,
    64,
    64,
    69,
    66,
    96,
    3,
    67,
    1,
    88,
    3,
    79,
    0,
    0,
    0,
    0,
    0,
    52,
    64,
    64,
    66,
    96,
    0,
    0,
    2,
    127,
    5,
    64,
    0,
    0,
    0,
    0,
    0,
    0,
    0,
    84,
    0,
    0,
    0,
    0,
    0,
    0,
    0,
    0,
    0,
    127,
    0,
    127,
    0,
    76,
    0,
    0,
    64,
    64,
    64,
    0,
    0,
    0,
    0,
    0,
    0,
    2,
    100,
    64,
    36,
    0,
    0,
    64,
    0,
    0,
    64,
    85,
    64,
    13,
    23,
    0,
    0,
    64,
    0,
    64,
    0,
    2,
    92,
    64,
    0,
    0,
    0,
    0,
    0,
    0,
    64,
    83,
    64,
    0,
    73,
    0,
    0,
    64,
    0,
    64,
    0,
    1,
    3,
    0,
    0,
    105,
    125,
    5,
    64,
    0,
    0,
    0,
    1,
    0,
    20,
    64,
    64,
    0,
    0,
    0,
    0,
    0,
    0,
    0,
    0,
    0,
    0,
    0,
    8,
    19,
    64,
    78,
    46,
    14,
    68,
    110,
    21,
    98,
    65,
    1,
    26,
    0,
    0,
    0,
    0,
    50,
    0,
    0,
    0,
    0,
    0,
    64,
    0,
    0,
    64,
    0,
    0,
    40,
    0,
    0,
    0,
    0,
    0,
    64,
    0,
    0,
    64,
    0,
    0,
    21,
    0,
    0,
    0,
    0,
    0,
    64,
    0,
    0,
    64,
    1,
    0,
    64,
    0,
    7,
    0,
    59,
    17,
    0,
    0,
    48,
    0,
    0,
    0,
    64,
    0,
    7,
    0,
    61,
    22,
    0,
    0,
    52,
    0,
    0,
    0,
    64,
    0,
    0,
    0,
    0,
    127,
    0,
    0,
    0,
    0,
    0,
    0,
    64,
    0,
    0,
    0,
    0,
    127,
    0,
    0,
    0,
    0,
    0,
    1,
    0,
    0,
    0,
    64,
    0,
    0,
    0,
    64,
    0,
    0,
    0,
    64,
    0,
    0,
    0,
    64,
    11,
    26,
    119,
    11,
    25,
    15,
    11,
    20,
    109,
    11,
    26,
    111,
    0,
    0,
    64,
    0,
    0,
    64,
    0,
    0,
    64,
    0,
    0,
    64,
    0,
    0,
    64,
    0,
    0,
    64,
    0,
    0,
    64,
    0,
    0,
    64,
    0,
    0,
    64,
    0,
    0,
    64,
    0,
    0,
    64,
    0,
    0,
    64,
    16,
    0,
    0,
    0,
    15,
    5,
    6,
    0,
    0,
    0,
    0,
    0,
    0,
    0,
    15,
    0,
    0,
    55,
    4,
    4,
    4,
    4,
    4,
    4,
    4,
    4,
    4,
    4,
    4,
    4,
    4,
    4,
    4,
    4,
    76,
    76,
    76,
    76,
    76,
    76,
    76,
    76,
    76,
    76,
    76,
    76,
    76,
    76,
    76,
    76,
    68,
    0,
    0,
    0,
    70,
    77,
    32,
    67,
    104,
    111,
    114,
    100,
    115,
    32,
    32,
    32,
    32,
    32,
    83,
    75,
    11,
    0,
    0,
    0,
    111,
    247
]