[
    62,
    19,
    0,
    16,
    2,
    41,
    1,
    64,
    64,
    64,
    66,
    96,
    3,
    0,
    7,
    127,
    1,
    64,
    0,
    0,
    0,
    0,
    0,
    64,
    64,
    64,
    66,
    96,
    0,
    0,
    11,
    127,
    3,
    64,
    0,
    0,
    0,
    0,
    0,
    52,
    64,
    64,
    66,
    96,
    3,
    0,
    3,
    127,
    5,
    64,
    0,
    0,
    0,
    0,
    0,
    0,
    2,
    64,
    0,
    0,
    0,
    0,
    0,
    20,
    1,
    0,
    0,
    100,
    0,
    127,
    0,
    127,
    114,
    0,
    0,
    64,
    0,
    0,
    0,
    0,
    1,
    0,
    0,
    1,
    70,
    64,
    0,
    0,
    0,
    0,
    0,
    0,
    64,
    64,
    64,
    1,
    64,
    0,
    0,
    64,
    1,
    64,
    0,
    0,
    127,
    64,
    0,
    0,
    0,
    0,
    0,
    0,
    64,
    64,
    64,
    0,
    64,
    0,
    0,
    64,
    3,
    64,
    0,
    0,
    3,
    0,
    0,
    127,
    114,
    5,
    64,
    0,
    0,
    0,
    1,
    0,
    10,
    10,
    64,
    0,
    127,
    127,
    127,
    127,
    127,
    0,
    127,
    127,
    127,
    127,
    8,
    0,
    53,
    64,
    100,
    0,
    64,
    100,
    0,
    100,
    110,
    0,
    15,
    64,
    127,
    127,
    0,
    50,
    64,
    0,
    0,
    0,
    0,
    64,
    0,
    0,
    64,
    0,
    0,
    3,
    64,
    0,
    0,
    0,
    0,
    64,
    0,
    0,
    64,
    0,
    0,
    30,
    64,
    0,
    0,
    0,
    0,
    64,
    0,
    0,
    64,
    1,
    0,
    64,
    0,
    127,
    127,
    50,
    127,
    0,
    127,
    0,
    0,
    0,
    0,
    64,
    0,
    35,
    127,
    52,
    80,
    0,
    127,
    88,
    0,
    0,
    0,
    64,
    0,
    95,
    64,
    64,
    127,
    64,
    64,
    64,
    0,
    0,
    0,
    64,
    0,
    50,
    64,
    64,
    127,
    64,
    64,
    64,
    0,
    0,
    1,
    1,
    0,
    0,
    74,
    0,
    0,
    0,
    64,
    0,
    0,
    0,
    64,
    0,
    0,
    0,
    64,
    8,
    2,
    114,
    9,
    20,
    104,
    1,
    7,
    74,
    0,
    0,
    64,
    25,
    52,
    79,
    3,
    15,
    4,
    0,
    0,
    64,
    0,
    0,
    64,
    0,
    0,
    64,
    0,
    0,
    64,
    0,
    0,
    64,
    0,
    0,
    64,
    0,
    0,
    64,
    0,
    0,
    64,
    0,
    0,
    64,
    0,
    0,
    64,
    16,
    100,
    3,
    0,
    15,
    8,
    5,
    0,
    0,
    0,
    1,
    12,
    0,
    0,
    15,
    0,
    0,
    127,
    4,
    4,
    4,
    4,
    4,
    4,
    4,
    4,
    4,
    4,
    4,
    4,
    4,
    4,
    4,
    4,
    68,
    68,
    68,
    68,
    68,
    68,
    68,
    68,
    68,
    68,
    68,
    68,
    68,
    68,
    68,
    68,
    68,
    0,
    0,
    0,
    73,
    110,
    105,
    116,
    32,
    32,
    32,
    32,
    32,
    32,
    32,
    32,
    32,
    32,
    32,
    32,
    0,
    0,
    0,
    0,
    1,
    247
]