[
    62,
    19,
    0,
    16,
    2,
    120,
    1,
    40,
    64,
    64,
    66,
    96,
    0,
    0,
    5,
    127,
    1,
    64,
    0,
    0,
    0,
    1,
    0,
    64,
    64,
    64,
    66,
    96,
    1,
    0,
    5,
    127,
    3,
    64,
    0,
    0,
    0,
    1,
    0,
    52,
    64,
    64,
    66,
    96,
    0,
    0,
    2,
    127,
    5,
    64,
    0,
    0,
    0,
    0,
    0,
    0,
    2,
    64,
    0,
    0,
    0,
    0,
    0,
    20,
    0,
    0,
    0,
    127,
    0,
    127,
    0,
    127,
    0,
    0,
    0,
    64,
    0,
    0,
    0,
    0,
    1,
    0,
    0,
    1,
    80,
    64,
    52,
    0,
    0,
    0,
    0,
    0,
    64,
    64,
    64,
    1,
    64,
    0,
    0,
    64,
    1,
    64,
    0,
    9,
    60,
    64,
    47,
    0,
    0,
    0,
    0,
    0,
    64,
    64,
    64,
    0,
    64,
    0,
    0,
    64,
    3,
    64,
    0,
    1,
    3,
    0,
    0,
    127,
    114,
    5,
    64,
    0,
    0,
    0,
    1,
    0,
    20,
    64,
    64,
    0,
    127,
    127,
    127,
    127,
    127,
    127,
    127,
    127,
    127,
    127,
    8,
    0,
    53,
    64,
    100,
    0,
    64,
    100,
    0,
    100,
    110,
    0,
    15,
    64,
    127,
    127,
    0,
    50,
    64,
    0,
    0,
    0,
    0,
    64,
    0,
    0,
    64,
    0,
    2,
    20,
    64,
    0,
    0,
    0,
    0,
    64,
    0,
    0,
    64,
    0,
    5,
    16,
    64,
    0,
    0,
    0,
    0,
    64,
    0,
    0,
    64,
    1,
    0,
    64,
    0,
    0,
    127,
    50,
    0,
    0,
    127,
    0,
    0,
    0,
    0,
    64,
    0,
    71,
    127,
    52,
    127,
    0,
    127,
    0,
    0,
    0,
    0,
    64,
    0,
    0,
    64,
    64,
    64,
    64,
    64,
    64,
    0,
    0,
    0,
    64,
    0,
    0,
    64,
    64,
    64,
    64,
    64,
    64,
    0,
    0,
    1,
    0,
    0,
    0,
    64,
    0,
    0,
    0,
    64,
    0,
    0,
    0,
    64,
    0,
    0,
    0,
    64,
    1,
    3,
    104,
    3,
    25,
    71,
    0,
    0,
    64,
    0,
    0,
    64,
    5,
    32,
    84,
    0,
    0,
    64,
    0,
    0,
    64,
    0,
    0,
    64,
    0,
    0,
    64,
    0,
    0,
    64,
    0,
    0,
    64,
    0,
    0,
    64,
    0,
    0,
    64,
    0,
    0,
    64,
    0,
    0,
    64,
    0,
    0,
    64,
    16,
    100,
    0,
    0,
    15,
    8,
    5,
    0,
    0,
    0,
    1,
    12,
    0,
    0,
    15,
    0,
    0,
    55,
    4,
    4,
    4,
    4,
    4,
    4,
    4,
    4,
    4,
    4,
    4,
    4,
    4,
    4,
    4,
    4,
    68,
    68,
    68,
    68,
    68,
    68,
    68,
    68,
    68,
    68,
    68,
    68,
    68,
    68,
    68,
    68,
    68,
    0,
    0,
    0,
    73,
    110,
    105,
    116,
    32,
    32,
    32,
    32,
    32,
    32,
    32,
    32,
    32,
    32,
    32,
    32,
    0,
    0,
    0,
    0,
    93,
    247
]