[
    62,
    19,
    0,
    16,
    3,
    53,
    1,
    64,
    64,
    64,
    66,
    96,
    0,
    0,
    16,
    127,
    1,
    64,
    0,
    0,
    0,
    0,
    0,
    64,
    64,
    64,
    66,
    96,
    1,
    127,
    24,
    127,
    3,
    64,
    0,
    0,
    0,
    0,
    0,
    52,
    64,
    64,
    66,
    96,
    0,
    0,
    0,
    127,
    5,
    64,
    0,
    0,
    0,
    0,
    0,
    0,
    2,
    64,
    0,
    0,
    0,
    0,
    0,
    20,
    0,
    0,
    0,
    127,
    0,
    127,
    0,
    127,
    0,
    0,
    0,
    64,
    0,
    0,
    0,
    0,
    1,
    0,
    0,
    3,
    68,
    64,
    42,
    0,
    0,
    0,
    0,
    0,
    64,
    64,
    64,
    1,
    64,
    0,
    0,
    64,
    1,
    64,
    0,
    1,
    127,
    64,
    34,
    0,
    0,
    0,
    0,
    0,
    64,
    64,
    64,
    0,
    64,
    0,
    0,
    64,
    3,
    64,
    0,
    1,
    3,
    0,
    0,
    127,
    114,
    5,
    64,
    0,
    0,
    0,
    1,
    0,
    20,
    64,
    64,
    0,
    127,
    127,
    127,
    127,
    127,
    127,
    127,
    127,
    127,
    127,
    8,
    0,
    53,
    64,
    100,
    0,
    64,
    100,
    0,
    100,
    110,
    0,
    15,
    64,
    127,
    127,
    0,
    5,
    64,
    0,
    0,
    0,
    0,
    64,
    0,
    0,
    64,
    0,
    0,
    40,
    64,
    0,
    0,
    0,
    0,
    64,
    0,
    0,
    64,
    0,
    0,
    30,
    64,
    0,
    0,
    0,
    0,
    64,
    0,
    0,
    64,
    1,
    0,
    64,
    0,
    0,
    127,
    50,
    0,
    0,
    127,
    0,
    0,
    0,
    0,
    64,
    0,
    0,
    127,
    52,
    127,
    0,
    127,
    29,
    0,
    0,
    0,
    64,
    0,
    0,
    64,
    64,
    64,
    64,
    64,
    64,
    0,
    0,
    0,
    64,
    0,
    0,
    64,
    64,
    64,
    64,
    64,
    64,
    0,
    0,
    1,
    0,
    0,
    0,
    64,
    0,
    0,
    0,
    64,
    0,
    0,
    0,
    64,
    0,
    0,
    0,
    64,
    3,
    20,
    89,
    0,
    0,
    64,
    0,
    0,
    64,
    0,
    0,
    64,
    1,
    0,
    74,
    0,
    0,
    64,
    0,
    0,
    64,
    0,
    0,
    64,
    0,
    0,
    64,
    0,
    0,
    64,
    0,
    0,
    64,
    0,
    0,
    64,
    0,
    0,
    64,
    0,
    0,
    64,
    0,
    0,
    64,
    0,
    0,
    64,
    16,
    100,
    0,
    0,
    15,
    8,
    5,
    0,
    0,
    0,
    1,
    12,
    0,
    0,
    15,
    0,
    0,
    55,
    4,
    4,
    4,
    4,
    4,
    4,
    4,
    4,
    4,
    4,
    4,
    4,
    4,
    4,
    4,
    4,
    68,
    68,
    68,
    68,
    68,
    68,
    68,
    68,
    68,
    68,
    68,
    68,
    68,
    68,
    68,
    68,
    68,
    0,
    0,
    0,
    73,
    110,
    105,
    116,
    32,
    32,
    32,
    32,
    32,
    32,
    32,
    32,
    32,
    32,
    32,
    32,
    0,
    0,
    0,
    0,
    31,
    247
]