[
    62,
    19,
    0,
    16,
    3,
    60,
    1,
    52,
    64,
    64,
    66,
    96,
    0,
    0,
    2,
    127,
    1,
    64,
    0,
    0,
    0,
    0,
    35,
    40,
    64,
    61,
    66,
    96,
    0,
    0,
    2,
    127,
    3,
    64,
    0,
    0,
    0,
    0,
    26,
    64,
    64,
    62,
    66,
    96,
    5,
    15,
    2,
    127,
    5,
    64,
    0,
    0,
    0,
    0,
    46,
    0,
    2,
    64,
    0,
    0,
    0,
    0,
    0,
    20,
    16,
    2,
    0,
    110,
    0,
    110,
    0,
    127,
    0,
    0,
    0,
    64,
    0,
    0,
    0,
    0,
    1,
    0,
    0,
    2,
    70,
    64,
    25,
    0,
    0,
    0,
    0,
    0,
    96,
    77,
    64,
    1,
    64,
    0,
    0,
    64,
    1,
    64,
    0,
    0,
    127,
    64,
    0,
    0,
    0,
    0,
    0,
    0,
    64,
    64,
    64,
    0,
    64,
    0,
    0,
    64,
    3,
    64,
    0,
    0,
    3,
    0,
    0,
    127,
    64,
    5,
    64,
    0,
    0,
    0,
    1,
    37,
    29,
    50,
    64,
    0,
    127,
    127,
    127,
    127,
    127,
    127,
    127,
    127,
    127,
    127,
    8,
    30,
    31,
    127,
    69,
    0,
    64,
    45,
    0,
    96,
    80,
    0,
    15,
    64,
    127,
    127,
    0,
    50,
    64,
    0,
    0,
    0,
    0,
    64,
    0,
    0,
    64,
    0,
    0,
    40,
    64,
    0,
    0,
    0,
    0,
    64,
    0,
    0,
    64,
    0,
    0,
    30,
    64,
    0,
    0,
    0,
    0,
    64,
    0,
    0,
    64,
    1,
    0,
    64,
    0,
    0,
    127,
    41,
    45,
    0,
    127,
    0,
    0,
    0,
    0,
    64,
    0,
    29,
    127,
    52,
    127,
    0,
    127,
    70,
    0,
    0,
    0,
    64,
    0,
    0,
    64,
    64,
    64,
    64,
    64,
    64,
    0,
    0,
    0,
    64,
    0,
    0,
    64,
    64,
    64,
    64,
    64,
    64,
    0,
    0,
    1,
    0,
    0,
    0,
    64,
    0,
    0,
    0,
    64,
    0,
    0,
    0,
    64,
    0,
    0,
    0,
    64,
    13,
    14,
    100,
    13,
    1,
    73,
    13,
    4,
    73,
    13,
    20,
    100,
    16,
    41,
    114,
    0,
    0,
    64,
    0,
    0,
    64,
    0,
    0,
    64,
    0,
    0,
    64,
    0,
    0,
    64,
    0,
    0,
    64,
    0,
    0,
    64,
    0,
    0,
    64,
    0,
    0,
    64,
    0,
    0,
    64,
    0,
    0,
    64,
    16,
    100,
    0,
    0,
    15,
    6,
    5,
    0,
    0,
    0,
    1,
    12,
    0,
    0,
    15,
    0,
    0,
    85,
    4,
    4,
    4,
    4,
    4,
    4,
    4,
    4,
    4,
    4,
    4,
    4,
    4,
    4,
    4,
    4,
    68,
    68,
    68,
    68,
    68,
    68,
    68,
    68,
    68,
    68,
    68,
    68,
    68,
    68,
    68,
    68,
    68,
    0,
    0,
    0,
    82,
    97,
    105,
    110,
    98,
    111,
    119,
    32,
    32,
    32,
    32,
    32,
    32,
    32,
    32,
    32,
    0,
    0,
    0,
    0,
    123,
    247
]