[
    62,
    19,
    0,
    16,
    3,
    93,
    1,
    52,
    64,
    62,
    66,
    96,
    0,
    0,
    2,
    127,
    1,
    64,
    0,
    0,
    0,
    0,
    0,
    52,
    64,
    67,
    66,
    96,
    0,
    0,
    2,
    127,
    3,
    64,
    0,
    0,
    0,
    0,
    0,
    52,
    64,
    64,
    66,
    96,
    0,
    0,
    2,
    127,
    5,
    64,
    0,
    0,
    0,
    0,
    0,
    0,
    0,
    64,
    0,
    0,
    0,
    0,
    0,
    20,
    0,
    0,
    0,
    127,
    0,
    127,
    0,
    127,
    0,
    0,
    0,
    64,
    0,
    0,
    0,
    0,
    1,
    0,
    0,
    2,
    122,
    64,
    84,
    13,
    0,
    0,
    0,
    0,
    64,
    105,
    64,
    5,
    64,
    3,
    0,
    64,
    1,
    64,
    0,
    2,
    110,
    64,
    98,
    0,
    0,
    0,
    0,
    0,
    77,
    66,
    64,
    5,
    109,
    0,
    0,
    64,
    3,
    96,
    0,
    0,
    2,
    0,
    0,
    80,
    64,
    0,
    64,
    0,
    0,
    0,
    3,
    64,
    5,
    50,
    127,
    127,
    64,
    80,
    0,
    127,
    0,
    127,
    127,
    127,
    127,
    127,
    7,
    16,
    64,
    64,
    0,
    64,
    64,
    110,
    64,
    1,
    1,
    1,
    24,
    64,
    64,
    64,
    0,
    45,
    64,
    0,
    0,
    0,
    0,
    64,
    0,
    0,
    64,
    0,
    5,
    94,
    64,
    0,
    1,
    0,
    0,
    64,
    0,
    0,
    64,
    0,
    5,
    114,
    64,
    1,
    1,
    0,
    0,
    64,
    0,
    0,
    64,
    1,
    0,
    64,
    0,
    0,
    127,
    90,
    0,
    50,
    127,
    70,
    0,
    0,
    0,
    64,
    0,
    0,
    127,
    52,
    127,
    0,
    96,
    64,
    0,
    0,
    0,
    64,
    0,
    11,
    64,
    64,
    64,
    64,
    64,
    64,
    0,
    0,
    0,
    64,
    0,
    64,
    64,
    64,
    64,
    64,
    64,
    64,
    0,
    0,
    1,
    0,
    0,
    0,
    64,
    0,
    0,
    0,
    64,
    0,
    0,
    0,
    64,
    0,
    0,
    0,
    64,
    1,
    1,
    64,
    3,
    4,
    64,
    5,
    7,
    64,
    0,
    0,
    64,
    0,
    0,
    64,
    0,
    0,
    64,
    0,
    0,
    64,
    0,
    0,
    64,
    0,
    0,
    64,
    0,
    0,
    64,
    0,
    0,
    64,
    0,
    0,
    64,
    0,
    0,
    64,
    0,
    0,
    64,
    0,
    0,
    64,
    0,
    0,
    64,
    16,
    0,
    0,
    1,
    15,
    5,
    4,
    0,
    0,
    0,
    1,
    12,
    0,
    1,
    15,
    0,
    0,
    75,
    4,
    4,
    4,
    4,
    4,
    4,
    4,
    4,
    4,
    4,
    4,
    4,
    4,
    4,
    4,
    4,
    68,
    68,
    68,
    68,
    68,
    68,
    68,
    68,
    68,
    68,
    68,
    68,
    68,
    68,
    68,
    68,
    68,
    0,
    0,
    0,
    83,
    105,
    109,
    112,
    108,
    101,
    38,
    83,
    111,
    108,
    100,
    32,
    32,
    87,
    77,
    70,
    9,
    0,
    0,
    0,
    19,
    247
]