[
    62,
    19,
    0,
    16,
    3,
    115,
    1,
    64,
    64,
    64,
    66,
    96,
    0,
    0,
    1,
    80,
    1,
    64,
    0,
    0,
    0,
    0,
    0,
    64,
    64,
    64,
    66,
    96,
    3,
    40,
    5,
    127,
    3,
    64,
    0,
    0,
    0,
    1,
    127,
    52,
    64,
    64,
    66,
    96,
    0,
    0,
    3,
    127,
    5,
    64,
    0,
    0,
    0,
    0,
    0,
    0,
    2,
    64,
    0,
    0,
    0,
    0,
    0,
    20,
    0,
    1,
    0,
    127,
    0,
    127,
    112,
    127,
    0,
    0,
    0,
    64,
    0,
    0,
    0,
    0,
    1,
    0,
    0,
    1,
    80,
    64,
    30,
    0,
    0,
    0,
    0,
    0,
    64,
    64,
    64,
    1,
    94,
    1,
    60,
    64,
    1,
    64,
    0,
    1,
    80,
    64,
    25,
    10,
    0,
    0,
    0,
    0,
    64,
    64,
    64,
    5,
    114,
    3,
    85,
    64,
    3,
    64,
    0,
    0,
    3,
    0,
    0,
    127,
    114,
    5,
    64,
    0,
    0,
    0,
    1,
    40,
    20,
    64,
    64,
    0,
    127,
    127,
    127,
    127,
    127,
    127,
    127,
    127,
    127,
    127,
    8,
    0,
    53,
    64,
    100,
    0,
    64,
    100,
    0,
    100,
    110,
    0,
    15,
    64,
    127,
    127,
    0,
    50,
    64,
    0,
    0,
    0,
    0,
    64,
    0,
    0,
    64,
    0,
    0,
    40,
    64,
    0,
    0,
    0,
    0,
    64,
    0,
    0,
    64,
    0,
    0,
    6,
    64,
    0,
    0,
    0,
    0,
    64,
    0,
    0,
    64,
    1,
    0,
    64,
    0,
    0,
    127,
    50,
    0,
    0,
    127,
    0,
    0,
    0,
    0,
    64,
    0,
    80,
    127,
    52,
    127,
    0,
    127,
    93,
    0,
    0,
    0,
    64,
    0,
    80,
    64,
    64,
    127,
    64,
    64,
    80,
    0,
    0,
    0,
    64,
    0,
    0,
    64,
    64,
    64,
    64,
    64,
    64,
    0,
    0,
    1,
    0,
    0,
    0,
    64,
    0,
    0,
    0,
    64,
    0,
    0,
    0,
    64,
    0,
    0,
    0,
    64,
    1,
    3,
    89,
    3,
    13,
    114,
    0,
    0,
    64,
    0,
    0,
    64,
    8,
    50,
    109,
    0,
    0,
    64,
    16,
    20,
    127,
    0,
    0,
    64,
    0,
    0,
    64,
    0,
    0,
    64,
    0,
    0,
    64,
    0,
    0,
    64,
    0,
    0,
    64,
    0,
    0,
    64,
    0,
    0,
    64,
    0,
    0,
    64,
    16,
    100,
    0,
    0,
    15,
    8,
    5,
    0,
    0,
    0,
    1,
    12,
    0,
    0,
    15,
    0,
    0,
    55,
    4,
    4,
    4,
    4,
    4,
    4,
    4,
    4,
    4,
    4,
    4,
    4,
    4,
    4,
    4,
    4,
    68,
    68,
    68,
    68,
    68,
    68,
    68,
    68,
    68,
    68,
    68,
    68,
    68,
    68,
    68,
    68,
    68,
    0,
    0,
    0,
    73,
    110,
    105,
    116,
    32,
    32,
    32,
    32,
    32,
    32,
    32,
    32,
    32,
    32,
    32,
    32,
    0,
    0,
    0,
    0,
    0,
    247
]