[
    62,
    19,
    0,
    16,
    4,
    106,
    1,
    52,
    64,
    64,
    66,
    96,
    0,
    0,
    1,
    20,
    0,
    64,
    0,
    0,
    0,
    0,
    0,
    52,
    64,
    64,
    66,
    96,
    0,
    0,
    1,
    39,
    0,
    64,
    0,
    0,
    0,
    0,
    0,
    64,
    64,
    64,
    66,
    96,
    0,
    0,
    1,
    19,
    0,
    64,
    0,
    0,
    0,
    0,
    0,
    0,
    0,
    64,
    0,
    0,
    0,
    0,
    0,
    41,
    0,
    0,
    0,
    127,
    0,
    0,
    0,
    0,
    0,
    0,
    0,
    64,
    64,
    0,
    0,
    0,
    0,
    0,
    0,
    2,
    63,
    64,
    81,
    48,
    0,
    64,
    0,
    0,
    64,
    64,
    72,
    0,
    64,
    0,
    0,
    64,
    0,
    64,
    0,
    0,
    88,
    64,
    57,
    0,
    0,
    0,
    0,
    0,
    64,
    64,
    64,
    0,
    64,
    0,
    0,
    64,
    0,
    64,
    0,
    0,
    1,
    0,
    0,
    20,
    64,
    0,
    64,
    0,
    0,
    0,
    1,
    0,
    20,
    64,
    64,
    64,
    64,
    64,
    64,
    64,
    64,
    64,
    64,
    64,
    64,
    64,
    8,
    0,
    53,
    64,
    100,
    0,
    64,
    100,
    0,
    100,
    110,
    64,
    64,
    64,
    64,
    64,
    0,
    96,
    0,
    0,
    1,
    0,
    0,
    64,
    0,
    0,
    64,
    0,
    0,
    96,
    0,
    0,
    0,
    0,
    0,
    64,
    0,
    0,
    64,
    0,
    0,
    96,
    0,
    0,
    0,
    0,
    0,
    64,
    0,
    0,
    64,
    0,
    0,
    64,
    0,
    0,
    127,
    60,
    0,
    64,
    0,
    40,
    0,
    0,
    0,
    64,
    0,
    0,
    127,
    99,
    0,
    116,
    0,
    13,
    0,
    0,
    0,
    64,
    0,
    64,
    64,
    64,
    64,
    64,
    64,
    64,
    0,
    0,
    0,
    64,
    0,
    64,
    64,
    64,
    64,
    64,
    64,
    64,
    0,
    0,
    1,
    0,
    0,
    0,
    64,
    0,
    0,
    0,
    64,
    0,
    0,
    0,
    64,
    0,
    0,
    0,
    64,
    11,
    10,
    8,
    11,
    12,
    119,
    0,
    0,
    64,
    0,
    0,
    64,
    0,
    0,
    64,
    0,
    0,
    64,
    0,
    0,
    64,
    0,
    0,
    64,
    0,
    0,
    64,
    0,
    0,
    64,
    0,
    0,
    64,
    0,
    0,
    64,
    0,
    0,
    64,
    0,
    0,
    64,
    0,
    0,
    64,
    0,
    0,
    64,
    16,
    0,
    0,
    1,
    15,
    5,
    4,
    0,
    0,
    2,
    0,
    56,
    0,
    1,
    15,
    0,
    0,
    55,
    15,
    3,
    5,
    7,
    4,
    3,
    7,
    3,
    4,
    7,
    5,
    11,
    7,
    3,
    7,
    11,
    4,
    7,
    68,
    71,
    68,
    71,
    68,
    71,
    68,
    71,
    68,
    7,
    68,
    71,
    68,
    71,
    68,
    0,
    0,
    0,
    83,
    113,
    114,
    66,
    97,
    115,
    115,
    83,
    119,
    105,
    110,
    103,
    32,
    87,
    77,
    70,
    12,
    0,
    0,
    0,
    64,
    247
]