[
    62,
    19,
    0,
    16,
    5,
    41,
    1,
    64,
    64,
    64,
    66,
    96,
    2,
    70,
    9,
    20,
    1,
    64,
    0,
    0,
    0,
    0,
    0,
    64,
    64,
    64,
    66,
    96,
    0,
    0,
    2,
    127,
    3,
    64,
    0,
    0,
    0,
    0,
    0,
    52,
    64,
    64,
    66,
    96,
    0,
    0,
    0,
    127,
    5,
    64,
    0,
    0,
    0,
    0,
    0,
    0,
    2,
    64,
    0,
    0,
    0,
    0,
    0,
    20,
    16,
    10,
    0,
    127,
    0,
    127,
    0,
    127,
    0,
    10,
    0,
    64,
    0,
    30,
    0,
    0,
    1,
    0,
    0,
    9,
    100,
    64,
    0,
    0,
    0,
    0,
    0,
    0,
    64,
    64,
    64,
    3,
    98,
    1,
    70,
    64,
    1,
    64,
    0,
    0,
    114,
    64,
    0,
    0,
    0,
    0,
    0,
    0,
    64,
    64,
    64,
    5,
    114,
    0,
    0,
    64,
    3,
    64,
    0,
    0,
    3,
    0,
    0,
    127,
    114,
    5,
    64,
    0,
    0,
    0,
    1,
    0,
    20,
    64,
    64,
    0,
    127,
    127,
    127,
    127,
    127,
    127,
    127,
    127,
    127,
    127,
    8,
    0,
    53,
    64,
    100,
    0,
    64,
    100,
    0,
    100,
    110,
    0,
    15,
    64,
    127,
    127,
    0,
    10,
    64,
    0,
    0,
    0,
    0,
    64,
    0,
    0,
    64,
    0,
    0,
    50,
    64,
    0,
    0,
    0,
    0,
    64,
    0,
    0,
    64,
    0,
    0,
    20,
    64,
    0,
    0,
    0,
    0,
    64,
    0,
    0,
    64,
    1,
    0,
    64,
    0,
    0,
    127,
    50,
    0,
    0,
    127,
    0,
    0,
    0,
    0,
    64,
    0,
    99,
    127,
    52,
    127,
    0,
    127,
    127,
    0,
    0,
    0,
    64,
    0,
    0,
    64,
    64,
    64,
    64,
    64,
    64,
    0,
    0,
    0,
    64,
    0,
    0,
    64,
    64,
    64,
    64,
    64,
    64,
    0,
    0,
    1,
    0,
    0,
    0,
    64,
    0,
    0,
    0,
    64,
    0,
    0,
    0,
    64,
    0,
    0,
    0,
    64,
    1,
    2,
    114,
    3,
    50,
    93,
    5,
    32,
    104,
    0,
    0,
    64,
    16,
    22,
    126,
    0,
    0,
    64,
    0,
    0,
    64,
    0,
    0,
    64,
    0,
    0,
    64,
    0,
    0,
    64,
    0,
    0,
    64,
    0,
    0,
    64,
    0,
    0,
    64,
    0,
    0,
    64,
    0,
    0,
    64,
    0,
    0,
    64,
    16,
    100,
    0,
    0,
    15,
    8,
    5,
    0,
    0,
    0,
    1,
    12,
    0,
    0,
    15,
    0,
    0,
    55,
    4,
    4,
    4,
    4,
    4,
    4,
    4,
    4,
    4,
    4,
    4,
    4,
    4,
    4,
    4,
    4,
    68,
    68,
    68,
    68,
    68,
    68,
    68,
    68,
    68,
    68,
    68,
    68,
    68,
    68,
    68,
    68,
    68,
    0,
    0,
    0,
    73,
    110,
    105,
    116,
    32,
    32,
    32,
    32,
    32,
    32,
    32,
    32,
    32,
    32,
    32,
    32,
    0,
    0,
    0,
    0,
    85,
    247
]