[
    62,
    19,
    0,
    16,
    5,
    85,
    1,
    64,
    64,
    64,
    66,
    96,
    2,
    2,
    1,
    127,
    1,
    64,
    0,
    0,
    0,
    0,
    0,
    64,
    64,
    64,
    66,
    96,
    0,
    0,
    5,
    127,
    3,
    64,
    0,
    0,
    0,
    1,
    0,
    52,
    64,
    64,
    66,
    96,
    0,
    0,
    3,
    127,
    5,
    64,
    0,
    0,
    0,
    0,
    0,
    0,
    2,
    64,
    0,
    0,
    0,
    0,
    0,
    20,
    16,
    5,
    0,
    127,
    0,
    127,
    127,
    127,
    0,
    0,
    0,
    64,
    0,
    0,
    0,
    0,
    1,
    0,
    0,
    9,
    11,
    64,
    49,
    0,
    0,
    0,
    0,
    0,
    64,
    64,
    64,
    3,
    91,
    0,
    0,
    64,
    1,
    64,
    0,
    1,
    127,
    64,
    26,
    0,
    0,
    0,
    0,
    0,
    64,
    64,
    64,
    5,
    115,
    3,
    69,
    64,
    3,
    64,
    0,
    0,
    3,
    0,
    0,
    127,
    114,
    5,
    64,
    0,
    0,
    0,
    1,
    0,
    20,
    64,
    64,
    0,
    127,
    127,
    127,
    127,
    127,
    127,
    127,
    127,
    127,
    127,
    8,
    0,
    53,
    64,
    100,
    0,
    64,
    100,
    0,
    100,
    110,
    0,
    15,
    64,
    127,
    127,
    0,
    50,
    64,
    0,
    0,
    0,
    0,
    64,
    0,
    0,
    64,
    0,
    0,
    40,
    64,
    0,
    0,
    0,
    0,
    64,
    0,
    0,
    64,
    0,
    0,
    80,
    64,
    0,
    0,
    0,
    0,
    64,
    0,
    0,
    64,
    1,
    0,
    64,
    0,
    0,
    127,
    50,
    0,
    0,
    127,
    0,
    0,
    0,
    0,
    64,
    0,
    90,
    127,
    52,
    127,
    0,
    127,
    92,
    0,
    0,
    0,
    64,
    0,
    0,
    64,
    64,
    64,
    64,
    64,
    64,
    0,
    0,
    0,
    64,
    0,
    0,
    64,
    64,
    64,
    64,
    64,
    64,
    0,
    0,
    1,
    0,
    0,
    0,
    64,
    0,
    0,
    0,
    64,
    0,
    0,
    0,
    64,
    0,
    0,
    0,
    64,
    1,
    32,
    104,
    5,
    21,
    124,
    0,
    0,
    64,
    0,
    0,
    64,
    0,
    0,
    64,
    0,
    0,
    64,
    0,
    0,
    64,
    0,
    0,
    64,
    0,
    0,
    64,
    0,
    0,
    64,
    0,
    0,
    64,
    0,
    0,
    64,
    0,
    0,
    64,
    0,
    0,
    64,
    0,
    0,
    64,
    0,
    0,
    64,
    16,
    100,
    0,
    0,
    15,
    8,
    5,
    0,
    0,
    0,
    1,
    12,
    0,
    0,
    15,
    0,
    0,
    55,
    4,
    4,
    4,
    4,
    4,
    4,
    4,
    4,
    4,
    4,
    4,
    4,
    4,
    4,
    4,
    4,
    68,
    68,
    68,
    68,
    68,
    68,
    68,
    68,
    68,
    68,
    68,
    68,
    68,
    68,
    68,
    68,
    68,
    0,
    0,
    0,
    73,
    110,
    105,
    116,
    32,
    32,
    32,
    32,
    32,
    32,
    32,
    32,
    32,
    32,
    32,
    32,
    0,
    0,
    0,
    0,
    93,
    247
]