[
    62,
    19,
    0,
    16,
    7,
    89,
    1,
    52,
    64,
    64,
    66,
    96,
    0,
    0,
    4,
    43,
    1,
    64,
    1,
    0,
    0,
    0,
    0,
    64,
    64,
    59,
    66,
    96,
    0,
    0,
    0,
    127,
    3,
    92,
    1,
    0,
    0,
    0,
    0,
    64,
    64,
    64,
    66,
    96,
    0,
    0,
    0,
    127,
    5,
    64,
    0,
    0,
    0,
    0,
    0,
    0,
    2,
    84,
    0,
    1,
    0,
    0,
    0,
    0,
    0,
    0,
    0,
    51,
    0,
    0,
    0,
    0,
    0,
    43,
    0,
    64,
    64,
    0,
    0,
    0,
    0,
    0,
    0,
    5,
    110,
    64,
    73,
    29,
    0,
    64,
    0,
    0,
    64,
    64,
    64,
    1,
    94,
    0,
    0,
    64,
    1,
    64,
    0,
    2,
    101,
    64,
    0,
    0,
    0,
    0,
    0,
    0,
    64,
    79,
    64,
    3,
    64,
    0,
    0,
    64,
    3,
    64,
    0,
    1,
    3,
    0,
    0,
    127,
    114,
    5,
    64,
    0,
    0,
    0,
    1,
    0,
    20,
    64,
    64,
    0,
    127,
    127,
    127,
    127,
    127,
    127,
    127,
    127,
    127,
    127,
    8,
    0,
    53,
    64,
    100,
    0,
    64,
    100,
    0,
    100,
    110,
    0,
    15,
    64,
    127,
    127,
    0,
    50,
    0,
    0,
    0,
    0,
    0,
    64,
    0,
    0,
    64,
    0,
    0,
    40,
    0,
    0,
    0,
    0,
    0,
    64,
    0,
    0,
    64,
    0,
    0,
    30,
    0,
    0,
    0,
    0,
    0,
    64,
    0,
    0,
    64,
    1,
    0,
    64,
    0,
    11,
    64,
    45,
    36,
    64,
    64,
    34,
    0,
    0,
    0,
    64,
    0,
    12,
    64,
    37,
    0,
    64,
    64,
    21,
    0,
    0,
    0,
    64,
    0,
    0,
    64,
    0,
    127,
    64,
    64,
    0,
    0,
    0,
    0,
    64,
    0,
    0,
    64,
    0,
    127,
    64,
    64,
    0,
    0,
    0,
    1,
    0,
    0,
    0,
    64,
    0,
    0,
    0,
    64,
    0,
    0,
    0,
    64,
    0,
    0,
    0,
    64,
    0,
    0,
    64,
    0,
    0,
    64,
    0,
    0,
    64,
    0,
    0,
    64,
    0,
    0,
    64,
    0,
    0,
    64,
    0,
    0,
    64,
    0,
    0,
    64,
    0,
    0,
    64,
    0,
    0,
    64,
    0,
    0,
    64,
    0,
    0,
    64,
    0,
    0,
    64,
    0,
    0,
    64,
    0,
    0,
    64,
    0,
    0,
    64,
    16,
    0,
    3,
    0,
    15,
    5,
    6,
    0,
    0,
    0,
    0,
    0,
    0,
    0,
    15,
    0,
    0,
    55,
    4,
    4,
    4,
    4,
    4,
    4,
    4,
    4,
    4,
    4,
    4,
    7,
    4,
    4,
    4,
    4,
    68,
    71,
    68,
    71,
    68,
    71,
    68,
    71,
    68,
    71,
    68,
    71,
    68,
    71,
    68,
    71,
    68,
    0,
    0,
    0,
    73,
    105,
    32,
    99,
    108,
    111,
    115,
    101,
    100,
    32,
    48,
    52,
    32,
    32,
    32,
    32,
    10,
    0,
    0,
    0,
    101,
    247
]